{
  "about": {
    "browser": "firefox",
    "version": "1.18.4"
  },
  "showall": false,
  "lang": "fr",
  "dark": "system",
  "favicon": "",
  "tabtitle": "",
  "greeting": "Rawane",
  "pagegap": 1,
  "pagewidth": 1600,
  "time": true,
  "main": true,
  "usdate": false,
  "background_blur": 15,
  "background_bright": 0.8,
  "background_type": "unsplash",
  "quicklinks": true,
  "linkstyle": "large",
  "linknewtab": false,
  "linksrow": 6,
  "textShadow": 0.2,
  "reviewPopup": 1,
  "cssHeight": 80,
  "css": "",
  "hide": {},
  "clock": {
    "size": 1,
    "ampm": false,
    "analog": false,
    "seconds": false,
    "face": "none",
    "style": "round",
    "timezone": "auto"
  },
  "unsplash": {
    "every": "hour",
    "collection": "",
    "lastCollec": "night",
    "pausedImage": null,
    "time": 1706489500562
  },
  "weather": {
    "ccode": "FR",
    "city": "Orléans",
    "unit": "metric",
    "provider": "",
    "moreinfo": "none",
    "forecast": "auto",
    "temperature": "actual",
    "geolocation": "approximate"
  },
  "notes": {
    "on": false,
    "width": 40,
    "text": null,
    "opacity": 0.1,
    "align": "left"
  },
  "searchbar": {
    "on": false,
    "opacity": 0.1,
    "newtab": false,
    "suggestions": true,
    "engine": "google",
    "request": "",
    "placeholder": ""
  },
  "quotes": {
    "on": false,
    "author": false,
    "type": "classic",
    "frequency": "day",
    "last": 1706489442864,
    "userlist": []
  },
  "font": {
    "size": "14",
    "url": "",
    "family": "",
    "availWeights": [],
    "weight": "300"
  },
  "move": {
    "selection": "single",
    "layouts": {
      "single": {
        "grid": [
          [
            "time"
          ],
          [
            "main"
          ],
          [
            "quicklinks"
          ]
        ],
        "items": {}
      },
      "double": {
        "grid": [
          [
            "time",
            "."
          ],
          [
            "main",
            "."
          ],
          [
            "quicklinks",
            "."
          ]
        ],
        "items": {}
      },
      "triple": {
        "grid": [
          [
            ".",
            "time",
            "."
          ],
          [
            ".",
            "main",
            "."
          ],
          [
            ".",
            "quicklinks",
            "."
          ]
        ],
        "items": {}
      }
    }
  }
}